<svg xmlns="http://www.w3.org/2000/svg" width="225.934" height="225.932" viewBox="0 0 225.934 225.932">
  <g id="Page_-_06_-_Closing_-_Octagon" data-name="Page - 06 - Closing - Octagon" transform="translate(-1504.33 -12744.137)">
    <g id="Group_212" data-name="Group 212" transform="translate(1032.324 2568.324)">
      <g id="Path_312" data-name="Path 312" transform="translate(-734.916 8409.468)" fill="none">
        <path d="M1277.055,1766.343l-70.133,70.133v85.667l70.133,70.134h85.667l70.134-70.134v-85.667l-70.134-70.133Z" stroke="none"/>
        <path d="M 1287.410400390625 1791.3427734375 L 1231.922119140625 1846.830932617188 L 1231.922119140625 1911.786743164063 L 1287.410522460938 1967.275634765625 L 1352.366455078125 1967.275634765625 L 1407.85546875 1911.786743164063 L 1407.85546875 1846.830932617188 L 1352.366455078125 1791.3427734375 L 1287.410400390625 1791.3427734375 M 1277.05517578125 1766.3427734375 L 1362.7216796875 1766.3427734375 L 1432.85546875 1836.4755859375 L 1432.85546875 1922.14208984375 L 1362.7216796875 1992.275634765625 L 1277.05517578125 1992.275634765625 L 1206.922119140625 1922.14208984375 L 1206.922119140625 1836.4755859375 L 1277.05517578125 1766.3427734375 Z" stroke="none" fill="#fff"/>
      </g>
      <g id="Path_328" data-name="Path 328" transform="translate(-700.798 8443.585)" fill="none">
        <path d="M1255.874,1766.343l-48.952,48.951v59.794l48.952,48.952h59.794l48.952-48.952v-59.794l-48.952-48.951Z" stroke="none"/>
        <path d="M 1266.2294921875 1791.343017578125 L 1231.922119140625 1825.64990234375 L 1231.922119140625 1864.733154296875 L 1266.229614257813 1899.040771484375 L 1305.312866210938 1899.040771484375 L 1339.6201171875 1864.733276367188 L 1339.6201171875 1825.64990234375 L 1305.312866210938 1791.343017578125 L 1266.2294921875 1791.343017578125 M 1255.874267578125 1766.343017578125 L 1315.668212890625 1766.343017578125 L 1364.6201171875 1815.29443359375 L 1364.6201171875 1875.088500976563 L 1315.668212890625 1924.040771484375 L 1255.874267578125 1924.040771484375 L 1206.922119140625 1875.088500976563 L 1206.922119140625 1815.29443359375 L 1255.874267578125 1766.343017578125 Z" stroke="none" fill="#fff"/>
      </g>
    </g>
  </g>
</svg>
