<svg xmlns="http://www.w3.org/2000/svg" xmlns:xlink="http://www.w3.org/1999/xlink" width="620.999" height="597.444" viewBox="0 0 620.999 597.444">
  <defs>
    <linearGradient id="linear-gradient" x1="1" y1="0.948" x2="0.153" y2="0.283" gradientUnits="objectBoundingBox">
      <stop offset="0" stop-color="#111"/>
      <stop offset="1" stop-color="#22124e"/>
    </linearGradient>
  </defs>
  <path id="Page_-_02_-_The_Age_of_startups_-_Box_-_Dark_-_01" data-name="Page - 02 - The Age of startups - Box - Dark - 01" d="M-1365.727,797.753-1558.671,990.7v428.056h597.444v-621Z" transform="translate(-797.753 -961.227) rotate(-90)" fill="url(#linear-gradient)"/>
</svg>
